…
### Built-in Iteration

One advantage of `areal` is that it allows for multiple values to be
interpolated at a time. Here, both total estiatmed population
(`TOTAL_E`), the estimated count of white residents (`WHITE_E`), and the
estimated count of African American residents (`BLACK_E`) are
interpolated at
once:

``` r
aw_interpolate(wards, tid = WARD, source = race, sid = "GEOID", type = "extensive", 
               weight = "sum", output = "tibble", "TOTAL_E", "WHITE_E", "BLACK_E")
#> # A tibble: 28 x 6
#>    OBJECTID  WARD       AREA TOTAL_E WHITE_E BLACK_E
#>  *    <dbl> <int>      <dbl>   <dbl>   <dbl>   <dbl>
#>  1        1     1  46138761.   7992.    153.   7779.
#>  2        2     2 267817711.  12145.   1323.  10639.
#>  3        3     3  66291644.   7344.    591.   6635.
#>  4        4     4  53210707.   8458.    160.   8203.
#>  5        5     5  60462396.   8783.   1526.   7056.
#>  6        6     6  64337271.  14050.   5840.   7439.
#>  7        7     7 101268146.  15840.   8220.   6629.
#>  8        8     8  45966410.  12188.   7604.   3796.
#>  9        9     9  73993891.  14217.   6838.   6413.
#> 10       10    10  62915358.  11239.   8703.   1667.
#> # ... with 18 more rows
```

### Interpolation Choices

Both spatially extensive (i.e. counts; illustrated in the prior
examples) and spatially intensive (i.e. ratios) data can be
interpolated. For spatially intensive data, the average is returned
rather than the
sum:

``` r
aw_interpolate(wards, tid = WARD, source = asthma, sid = "GEOID", type = "intensive", 
               weight = "sum", output = "tibble", "ASTHMA")
#> # A tibble: 28 x 2
#>     WARD ASTHMA
#>  * <int>  <dbl>
#>  1     1  13.4 
#>  2     2  13.2 
#>  3     3  14.1 
#>  4     4  13.6 
#>  5     5  13.8 
#>  6     6  11.7 
#>  7     7   9.72
#>  8     8   9.82
#>  9     9  11.8 
#> 10    10   9.44
#> # ... with 18 more rows
```
…
# create combined data
raceTable %>%
  select(GEOID, TOTAL_E, WHITE_E, BLACK_E) %>%
  left_join(asthma, ., by = "GEOID") -> combinedData

# interpolate
aw_interpolate(wards, tid = WARD, source = combinedData, sid = "GEOID", type = "mixed", 
               weight = "sum", output = "tibble", 
               extensive = c("TOTAL_E", "WHITE_E", "BLACK_E"),
               intensive = c("ASTHMA"))
#> # A tibble: 28 x 7
#>    OBJECTID  WARD       AREA TOTAL_E WHITE_E BLACK_E ASTHMA
#>  *    <dbl> <int>      <dbl>   <dbl>   <dbl>   <dbl>  <dbl>
#>  1        1     1  46138761.   7992.    153.   7779.  13.4 
#>  2        2     2 267817711.  12145.   1323.  10639.  13.2 
#>  3        3     3  66291644.   7344.    591.   6635.  14.1 
#>  4        4     4  53210707.   8458.    160.   8203.  13.6 
#>  5        5     5  60462396.   8783.   1526.   7056.  13.8 
#>  6        6     6  64337271.  14050.   5840.   7439.  11.7 
#>  7        7     7 101268146.  15840.   8220.   6629.   9.72
#>  8        8     8  45966410.  12188.   7604.   3796.   9.82
#>  9        9     9  73993891.  14217.   6838.   6413.  11.8 
#> 10       10    10  62915358.  11239.   8703.   1667.   9.44
#> # ... with 18 more rows
```
…
### Pipe Compatible

One key advantage of `areal` is that is pipeable, meaning that it can
fit easily into existing `tidyverse` workflows:

``` r
wards %>%
  select(-OBJECTID, -AREA) %>%
  aw_interpolate(tid = WARD, source = race, sid = "GEOID", type = "extensive", 
               weight = "sum", output = "tibble", "TOTAL_E", "WHITE_E", "BLACK_E")
#> # A tibble: 28 x 4
#>     WARD TOTAL_E WHITE_E BLACK_E
#>  * <int>   <dbl>   <dbl>   <dbl>
#>  1     1   7992.    153.   7779.
#>  2     2  12145.   1323.  10639.
#>  3     3   7344.    591.   6635.
#>  4     4   8458.    160.   8203.
#>  5     5   8783.   1526.   7056.
#>  6     6  14050.   5840.   7439.
#>  7     7  15840.   8220.   6629.
#>  8     8  12188.   7604.   3796.
#>  9     9  14217.   6838.   6413.
#> 10    10  11239.   8703.   1667.
#> # ... with 18 more rows
```
…
