Areal Weighted Interpolation • areal
…
13
682.1182

This process is repeated for each of the n = 287 observations in the intersected data - areal weights are calculated, and the product of the areal weight the source value is summed based on the target identification number.

Extensive and Intensive Interpolations

Extensive Interpolations

The example above is a spatially extensive interpolation because it involves count data. In areal, these estimates are obtained using the aw_interpolate() function:

aw_interpolate(wards, tid = WARD, source = race, sid = GEOID, 
               weight = "sum", output = "tibble", extensive = "TOTAL_E")
#> # A tibble: 28 x 4
#>    OBJECTID  WARD       AREA TOTAL_E
#>       <dbl> <int>      <dbl>   <dbl>
#>  1        1     1  46138761.   7992.
#>  2        2     2 267817711.  12145.
#>  3        3     3  66291644.   7344.
#>  4        4     4  53210707.   8458.
#>  5        5     5  60462396.   8783.
#>  6        6     6  64337271.  14050.
#>  7        7     7 101268146.  15840.
#>  8        8     8  45966410.  12188.
#>  9        9     9  73993891.  14217.
#> 10       10    10  62915358.  11239.
#> # … with 18 more rows

For spatially extensive interpolations, a list of variable names should be supplied for the argument extensive. This can be a single variable name, such as in the example above, or a vector of variable names:

aw_interpolate(wards, tid = WARD, source = race, sid = GEOID, 
               weight = "sum", output = "tibble", 
               extensive = c("TOTAL_E", "WHITE_E", "BLACK_E"))
#> # A tibble: 28 x 6
#>    OBJECTID  WARD       AREA TOTAL_E WHITE_E BLACK_E
#>       <dbl> <int>      <dbl>   <dbl>   <dbl>   <dbl>
#>  1        1     1  46138761.   7992.    153.   7779.
#>  2        2     2 267817711.  12145.   1323.  10639.
#>  3        3     3  66291644.   7344.    591.   6635.
#>  4        4     4  53210707.   8458.    160.   8203.
#>  5        5     5  60462396.   8783.   1526.   7056.
#>  6        6     6  64337271.  14050.   5840.   7439.
#>  7        7     7 101268146.  15840.   8220.   6629.
#>  8        8     8  45966410.  12188.   7604.   3796.
#>  9        9     9  73993891.  14217.   6838.   6413.
#> 10       10    10  62915358.  11239.   8703.   1667.
#> # … with 18 more rows
…
\({A}_{ij} = \textrm{areas for intersected features in } i \textrm{ within source feature } j\)

\[ {A}_{j} = \sum{{A}_{ij}} \]

On the other hand, the "total" approach to calculating weights assumes that, if a source feature is only covered by 99.88% of the target features, only 99.88% of the source target’s data should be allocated to target features in the interpolation. When \({A}_{j}\) is created, the actual area of source feature \(j\) is used.

Weights Example 1: Non-Overlap Due to Data Quality

In the example above, race and wards are products of two different agencies. The aw_stl_wards data is a product of the City of the St. Louis and is quite close to fully overlapping with the U.S. Census Bureau’s TIGER boundaries for the city. However, there are a number of very small deviations at the edges where the ward boundaries are smaller than the tracts (but only just so). These deviations result in small portions of census tracts not fitting into any ward.

We can see this in the weights that are used by aw_interpolate(). The aw_preview_weights() function can be used to return a preview of these areal weights.

aw_preview_weights(wards, tid = WARD, source = race, sid = GEOID, 
                   type = "extensive")
#> # A tibble: 106 x 3
#>    GEOID       extensiveSum extensiveTotal
#>    <chr>              <dbl>          <dbl>
#>  1 29510101100            1          0.999
#>  2 29510101200            1          1.00 
#>  3 29510101300            1          1.00 
#>  4 29510101400            1          1.00 
#>  5 29510101500            1          0.998
#>  6 29510101800            1          0.978
#>  7 29510102100            1          0.991
#>  8 29510102200            1          0.999
#>  9 29510102300            1          0.999
#> 10 29510102400            1          1.00 
#> # … with 96 more rows
…
The difference in weights in this example is more extreme:

aw_preview_weights(wardsClipped, tid = WARD, source = race, sid = GEOID, 
                   type = "extensive")
#> # A tibble: 106 x 3
#>    GEOID       extensiveSum extensiveTotal
#>    <chr>              <dbl>          <dbl>
#>  1 29510101100            1          0.999
#>  2 29510101200            1          1.00 
#>  3 29510101300            1          1.00 
#>  4 29510101400            1          1.00 
#>  5 29510101500            1          0.998
#>  6 29510101800            1          0.723
#>  7 29510102100            1          0.991
#>  8 29510102200            1          0.999
#>  9 29510102300            1          0.999
#> 10 29510102400            1          1.00 
#> # … with 96 more rows
…
Spatially intensive operations are used when the data to be interpolated are, for example, a percentage or density value. An example of these data can be found in ar_stl_asthma, which contains asthma rates for each census tract in the city. The interpolation process is very similar to the spatially extensive workflow, except with how the areal weight is calculated. Instead of using the source data’s area for reference, the target data is used in the denominator. Let:

\({W}_{i} = \textrm{areal weight for intersected feature i}\)

\({A}_{i} = \textrm{area of intersected feature i}\)

\({A}_{ik} = \textrm{areas for intersected features in } i \textrm{ within target feature } k\)

\[ {W}_{i} = \frac { {A}_{i} }{ \sum{{A}_{ik}} } \]

Like spatially extensive interpolations that use the "sum" approach, the weights for intensive interpolations should always be equal to 1 as well.

aw_preview_weights(wards, tid = WARD, source = asthma, sid = GEOID, 
                   type = "intensive")
#> # A tibble: 28 x 2
#>     WARD intensive
#>    <int>     <dbl>
#>  1     1      1.00
#>  2     2      1   
#>  3     3      1   
#>  4     4      1   
#>  5     5      1   
#>  6     6      1   
#>  7     7      1.00
#>  8     8      1   
#>  9     9      1   
#> 10    10      1   
#> # … with 18 more rows

We can calculate the intensive interpolation by specifying a variable name for the intensive argument in aw_interpolate() and omitting the extensive argument:

aw_interpolate(wards, tid = WARD, source = asthma, sid = GEOID, 
               weight = "sum", output = "tibble", intensive = "ASTHMA")
#> # A tibble: 28 x 4
#>    OBJECTID  WARD       AREA ASTHMA
#>       <dbl> <int>      <dbl>  <dbl>
#>  1        1     1  46138761.  13.4 
#>  2        2     2 267817711.  13.2 
#>  3        3     3  66291644.  14.1 
#>  4        4     4  53210707.  13.6 
#>  5        5     5  60462396.  13.8 
#>  6        6     6  64337271.  11.7 
#>  7        7     7 101268146.   9.72
#>  8        8     8  45966410.   9.82
#>  9        9     9  73993891.  11.8 
#> 10       10    10  62915358.   9.44
#> # … with 18 more rows
…
areal also provides support for “mixed” interpolations where both spatially extensive and intensive interpolations need to be calculated. We specify a variable name or a vector of variable names for both the intensive and extensive arguments:

# remove sf geometry
st_geometry(race) <- NULL

# create combined data
race %>%
  select(GEOID, TOTAL_E, WHITE_E, BLACK_E) %>%
  left_join(asthma, ., by = "GEOID") -> combinedData

# interpolate
aw_interpolate(wards, tid = WARD, source = combinedData, sid = GEOID, 
               weight = "sum", output = "tibble", intensive = "ASTHMA",
               extensive = c("TOTAL_E", "WHITE_E", "BLACK_E"))
#> # A tibble: 28 x 7
#>    OBJECTID  WARD       AREA TOTAL_E WHITE_E BLACK_E ASTHMA
#>       <dbl> <int>      <dbl>   <dbl>   <dbl>   <dbl>  <dbl>
#>  1        1     1  46138761.   7992.    153.   7779.  13.4 
#>  2        2     2 267817711.  12145.   1323.  10639.  13.2 
#>  3        3     3  66291644.   7344.    591.   6635.  14.1 
#>  4        4     4  53210707.   8458.    160.   8203.  13.6 
#>  5        5     5  60462396.   8783.   1526.   7056.  13.8 
#>  6        6     6  64337271.  14050.   5840.   7439.  11.7 
#>  7        7     7 101268146.  15840.   8220.   6629.   9.72
#>  8        8     8  45966410.  12188.   7604.   3796.   9.82
#>  9        9     9  73993891.  14217.   6838.   6413.  11.8 
#> 10       10    10  62915358.  11239.   8703.   1667.   9.44
#> # … with 18 more rows
…
# calculate new percentages
result2 %>%
  mutate(
    WHITE_PCT_2 = WHITE_E/TOTAL,
    BLACK_PCT_2 = BLACK_E/TOTAL,
    TOTAL_PCT_2 = WHITE_PCT_2+BLACK_PCT_2
  ) -> result2

# display
result2 %>%
  select(WHITE_PCT, WHITE_PCT_2, BLACK_PCT, BLACK_PCT_2, TOTAL_PCT, TOTAL_PCT_2)
#> # A tibble: 28 x 6
#>    WHITE_PCT WHITE_PCT_2 BLACK_PCT BLACK_PCT_2 TOTAL_PCT TOTAL_PCT_2
#>        <dbl>       <dbl>     <dbl>       <dbl>     <dbl>       <dbl>
#>  1    0.0195      0.0193     0.980       0.981      1.00        1   
#>  2    0.177       0.111      0.823       0.889      1           1.00
#>  3    0.104       0.0818     0.896       0.918      1           1   
#>  4    0.0252      0.0191     0.975       0.981      1           1   
#>  5    0.174       0.178      0.826       0.822      1           1.00
#>  6    0.409       0.440      0.591       0.560      1           1.  
#>  7    0.575       0.554      0.425       0.446      1.00        1   
#>  8    0.700       0.667      0.300       0.333      1           1   
#>  9    0.505       0.516      0.495       0.484      1           1   
#> 10    0.862       0.839      0.138       0.161      1           1.  
#> # … with 18 more rows
…
Other Features of aw_interpolate

The sf option will include all of the variables that were included in the original target data. The aw_interpolate() function is pipe-able, allowing for existing tidyverse workflows to be integrated into the interpolation process. For example, if we wanted to remove the OBJECTID and AREA columns because they are not needed, this can be accomplished easily with areal and dplyr:

wards %>%
  select(-OBJECTID, -AREA) %>%
  aw_interpolate(tid = WARD, source = asthma, sid = GEOID, 
                 weight = "sum", output = "tibble", intensive = "ASTHMA")
#> # A tibble: 28 x 2
#>     WARD ASTHMA
#>    <int>  <dbl>
#>  1     1  13.4 
#>  2     2  13.2 
#>  3     3  14.1 
#>  4     4  13.6 
#>  5     5  13.8 
#>  6     6  11.7 
#>  7     7   9.72
#>  8     8   9.82
#>  9     9  11.8 
#> 10    10   9.44
#> # … with 18 more rows

All of the areal functions that are exported support non-standard evaluation, meaning that inputs can be either unquoted as they are above or quoted:

wards %>%
  select(-OBJECTID, -AREA) %>%
  aw_interpolate(tid = "WARD", source = asthma, sid = "GEOID", 
                 weight = "sum", output = "tibble", intensive = "ASTHMA")
#> # A tibble: 28 x 2
#>     WARD ASTHMA
#>    <int>  <dbl>
#>  1     1  13.4 
#>  2     2  13.2 
#>  3     3  14.1 
#>  4     4  13.6 
#>  5     5  13.8 
#>  6     6  11.7 
#>  7     7   9.72
#>  8     8   9.82
#>  9     9  11.8 
#> 10    10   9.44
#> # … with 18 more rows
…
