Interpolate Values — aw_interpolate • areal
…
aw_interpolate(ar_stl_wards, tid = WARD, source = ar_stl_asthma, sid = GEOID, weight = "sum",
    output = "tibble", intensive = "ASTHMA")
#> # A tibble: 28 x 4
#>    OBJECTID  WARD       AREA ASTHMA
#>       <dbl> <int>      <dbl>  <dbl>
#>  1        1     1  46138761.  13.4 
#>  2        2     2 267817711.  13.2 
#>  3        3     3  66291644.  14.1 
#>  4        4     4  53210707.  13.6 
#>  5        5     5  60462396.  13.8 
#>  6        6     6  64337271.  11.7 
#>  7        7     7 101268146.   9.72
#>  8        8     8  45966410.   9.82
#>  9        9     9  73993891.  11.8 
#> 10       10    10  62915358.   9.44
#> # … with 18 more rows
…
