Areal Weighted Interpolation • areal
…
               weight = "sum", output = "tibble", extensive = "TOTAL_E")
#> old-style crs object detected; please recreate object with a recent sf::st_crs()
#> old-style crs object detected; please recreate object with a recent sf::st_crs()
#> old-style crs object detected; please recreate object with a recent sf::st_crs()
#> old-style crs object detected; please recreate object with a recent sf::st_crs()
#> old-style crs object detected; please recreate object with a recent sf::st_crs()
#> old-style crs object detected; please recreate object with a recent sf::st_crs()
#> old-style crs object detected; please recreate object with a recent sf::st_crs()
#> old-style crs object detected; please recreate object with a recent sf::st_crs()
#> old-style crs object detected; please recreate object with a recent sf::st_crs()
#> old-style crs object detected; please recreate object with a recent sf::st_crs()
#> old-style crs object detected; please recreate object with a recent sf::st_crs()
#> old-style crs object detected; please recreate object with a recent sf::st_crs()
#> old-style crs object detected; please recreate object with a recent sf::st_crs()
#> # A tibble: 28 × 4
#>    OBJECTID  WARD       AREA TOTAL_E
#>       <dbl> <int>      <dbl>   <dbl>
#>  1        1     1  46138761.   7992.
#>  2        2     2 267817711.  12145.
#>  3        3     3  66291644.   7344.
#>  4        4     4  53210707.   8458.
#>  5        5     5  60462396.   8783.
#>  6        6     6  64337271.  14050.
#>  7        7     7 101268146.  15840.
#>  8        8     8  45966410.  12188.
#>  9        9     9  73993891.  14217.
#> 10       10    10  62915358.  11239.
#> # … with 18 more rows
…
#> old-style crs object detected; please recreate object with a recent sf::st_crs()
#> old-style crs object detected; please recreate object with a recent sf::st_crs()
#> old-style crs object detected; please recreate object with a recent sf::st_crs()
#> old-style crs object detected; please recreate object with a recent sf::st_crs()
#> old-style crs object detected; please recreate object with a recent sf::st_crs()
#> old-style crs object detected; please recreate object with a recent sf::st_crs()
#> old-style crs object detected; please recreate object with a recent sf::st_crs()
#> old-style crs object detected; please recreate object with a recent sf::st_crs()
#> old-style crs object detected; please recreate object with a recent sf::st_crs()
#> old-style crs object detected; please recreate object with a recent sf::st_crs()
#> old-style crs object detected; please recreate object with a recent sf::st_crs()
#> old-style crs object detected; please recreate object with a recent sf::st_crs()
#> old-style crs object detected; please recreate object with a recent sf::st_crs()
#> old-style crs object detected; please recreate object with a recent sf::st_crs()
#> # A tibble: 28 × 6
#>    OBJECTID  WARD       AREA BLACK_E TOTAL_E WHITE_E
#>       <dbl> <int>      <dbl>   <dbl>   <dbl>   <dbl>
#>  1        1     1  46138761.   7779.   7992.    153.
#>  2        2     2 267817711.  10639.  12145.   1323.
#>  3        3     3  66291644.   6635.   7344.    591.
#>  4        4     4  53210707.   8203.   8458.    160.
#>  5        5     5  60462396.   7056.   8783.   1526.
#>  6        6     6  64337271.   7439.  14050.   5840.
#>  7        7     7 101268146.   6629.  15840.   8220.
#>  8        8     8  45966410.   3796.  12188.   7604.
#>  9        9     9  73993891.   6413.  14217.   6838.
#> 10       10    10  62915358.   1667.  11239.   8703.
#> # … with 18 more rows
…
#> old-style crs object detected; please recreate object with a recent sf::st_crs()
#> old-style crs object detected; please recreate object with a recent sf::st_crs()
#> old-style crs object detected; please recreate object with a recent sf::st_crs()
#> old-style crs object detected; please recreate object with a recent sf::st_crs()
#> old-style crs object detected; please recreate object with a recent sf::st_crs()
#> old-style crs object detected; please recreate object with a recent sf::st_crs()
#> old-style crs object detected; please recreate object with a recent sf::st_crs()
#> old-style crs object detected; please recreate object with a recent sf::st_crs()
#> old-style crs object detected; please recreate object with a recent sf::st_crs()
#> old-style crs object detected; please recreate object with a recent sf::st_crs()
#> old-style crs object detected; please recreate object with a recent sf::st_crs()
#> old-style crs object detected; please recreate object with a recent sf::st_crs()
#> old-style crs object detected; please recreate object with a recent sf::st_crs()
#> old-style crs object detected; please recreate object with a recent sf::st_crs()
#> # A tibble: 106 × 3
#>    GEOID       extensiveSum extensiveTotal
#>    <chr>              <dbl>          <dbl>
#>  1 29510101100            1          0.999
#>  2 29510101200            1          1.00 
#>  3 29510101300            1          1.00 
#>  4 29510101400            1          1.00 
#>  5 29510101500            1          0.998
#>  6 29510101800            1          0.978
#>  7 29510102100            1          0.991
#>  8 29510102200            1          0.999
#>  9 29510102300            1          0.999
#> 10 29510102400            1          1.00 
#> # … with 96 more rows
…
#> old-style crs object detected; please recreate object with a recent sf::st_crs()
#> old-style crs object detected; please recreate object with a recent sf::st_crs()
#> old-style crs object detected; please recreate object with a recent sf::st_crs()
#> old-style crs object detected; please recreate object with a recent sf::st_crs()
#> old-style crs object detected; please recreate object with a recent sf::st_crs()
#> old-style crs object detected; please recreate object with a recent sf::st_crs()
#> old-style crs object detected; please recreate object with a recent sf::st_crs()
#> old-style crs object detected; please recreate object with a recent sf::st_crs()
#> old-style crs object detected; please recreate object with a recent sf::st_crs()
#> old-style crs object detected; please recreate object with a recent sf::st_crs()
#> old-style crs object detected; please recreate object with a recent sf::st_crs()
#> old-style crs object detected; please recreate object with a recent sf::st_crs()
#> old-style crs object detected; please recreate object with a recent sf::st_crs()
#> old-style crs object detected; please recreate object with a recent sf::st_crs()
#> # A tibble: 106 × 3
#>    GEOID       extensiveSum extensiveTotal
#>    <chr>              <dbl>          <dbl>
#>  1 29510101100            1          0.999
#>  2 29510101200            1          1.00 
#>  3 29510101300            1          1.00 
#>  4 29510101400            1          1.00 
#>  5 29510101500            1          0.998
#>  6 29510101800            1          0.723
#>  7 29510102100            1          0.991
#>  8 29510102200            1          0.999
#>  9 29510102300            1          0.999
#> 10 29510102400            1          1.00 
#> # … with 96 more rows
…
aw_preview_weights(wards, tid = WARD, source = asthma, sid = GEOID, 
                   type = "intensive")
#> old-style crs object detected; please recreate object with a recent sf::st_crs()
#> old-style crs object detected; please recreate object with a recent sf::st_crs()
#> old-style crs object detected; please recreate object with a recent sf::st_crs()
#> old-style crs object detected; please recreate object with a recent sf::st_crs()
#> old-style crs object detected; please recreate object with a recent sf::st_crs()
#> old-style crs object detected; please recreate object with a recent sf::st_crs()
#> old-style crs object detected; please recreate object with a recent sf::st_crs()
#> old-style crs object detected; please recreate object with a recent sf::st_crs()
#> old-style crs object detected; please recreate object with a recent sf::st_crs()
#> old-style crs object detected; please recreate object with a recent sf::st_crs()
#> old-style crs object detected; please recreate object with a recent sf::st_crs()
#> # A tibble: 28 × 2
#>     WARD intensive
#>    <int>     <dbl>
#>  1     1         1
#>  2     2         1
#>  3     3         1
#>  4     4         1
#>  5     5         1
#>  6     6         1
#>  7     7         1
#>  8     8         1
#>  9     9         1
#> 10    10         1
#> # … with 18 more rows
…
               weight = "sum", output = "tibble", intensive = "ASTHMA")
#> old-style crs object detected; please recreate object with a recent sf::st_crs()
#> old-style crs object detected; please recreate object with a recent sf::st_crs()
#> old-style crs object detected; please recreate object with a recent sf::st_crs()
#> old-style crs object detected; please recreate object with a recent sf::st_crs()
#> old-style crs object detected; please recreate object with a recent sf::st_crs()
#> old-style crs object detected; please recreate object with a recent sf::st_crs()
#> old-style crs object detected; please recreate object with a recent sf::st_crs()
#> old-style crs object detected; please recreate object with a recent sf::st_crs()
#> old-style crs object detected; please recreate object with a recent sf::st_crs()
#> old-style crs object detected; please recreate object with a recent sf::st_crs()
#> old-style crs object detected; please recreate object with a recent sf::st_crs()
#> old-style crs object detected; please recreate object with a recent sf::st_crs()
#> old-style crs object detected; please recreate object with a recent sf::st_crs()
#> # A tibble: 28 × 4
#>    OBJECTID  WARD       AREA ASTHMA
#>       <dbl> <int>      <dbl>  <dbl>
#>  1        1     1  46138761.  13.4 
#>  2        2     2 267817711.  13.2 
#>  3        3     3  66291644.  14.1 
#>  4        4     4  53210707.  13.6 
#>  5        5     5  60462396.  13.8 
#>  6        6     6  64337271.  11.7 
#>  7        7     7 101268146.   9.72
#>  8        8     8  45966410.   9.82
#>  9        9     9  73993891.  11.8 
#> 10       10    10  62915358.   9.44
#> # … with 18 more rows
…
aw_interpolate(wards, tid = WARD, source = combinedData, sid = GEOID, 
               weight = "sum", output = "tibble", intensive = "ASTHMA",
               extensive = c("TOTAL_E", "WHITE_E", "BLACK_E"))
#> old-style crs object detected; please recreate object with a recent sf::st_crs()
#> old-style crs object detected; please recreate object with a recent sf::st_crs()
#> old-style crs object detected; please recreate object with a recent sf::st_crs()
#> old-style crs object detected; please recreate object with a recent sf::st_crs()
#> old-style crs object detected; please recreate object with a recent sf::st_crs()
#> old-style crs object detected; please recreate object with a recent sf::st_crs()
#> old-style crs object detected; please recreate object with a recent sf::st_crs()
#> old-style crs object detected; please recreate object with a recent sf::st_crs()
#> old-style crs object detected; please recreate object with a recent sf::st_crs()
#> old-style crs object detected; please recreate object with a recent sf::st_crs()
#> old-style crs object detected; please recreate object with a recent sf::st_crs()
#> # A tibble: 28 × 7
#>    OBJECTID  WARD       AREA BLACK_E TOTAL_E WHITE_E ASTHMA
#>       <dbl> <int>      <dbl>   <dbl>   <dbl>   <dbl>  <dbl>
#>  1        1     1  46138761.   7779.   7992.    153.  13.4 
#>  2        2     2 267817711.  10639.  12145.   1323.  13.2 
#>  3        3     3  66291644.   6635.   7344.    591.  14.1 
#>  4        4     4  53210707.   8203.   8458.    160.  13.6 
#>  5        5     5  60462396.   7056.   8783.   1526.  13.8 
#>  6        6     6  64337271.   7439.  14050.   5840.  11.7 
#>  7        7     7 101268146.   6629.  15840.   8220.   9.72
#>  8        8     8  45966410.   3796.  12188.   7604.   9.82
#>  9        9     9  73993891.   6413.  14217.   6838.  11.8 
#> 10       10    10  62915358.   1667.  11239.   8703.   9.44
#> # … with 18 more rows
…
# calculate new percentages
result2 %>%
  mutate(
    WHITE_PCT_2 = WHITE_E/TOTAL,
    BLACK_PCT_2 = BLACK_E/TOTAL,
    TOTAL_PCT_2 = WHITE_PCT_2+BLACK_PCT_2
  ) -> result2

# display
result2 %>%
  select(WHITE_PCT, WHITE_PCT_2, BLACK_PCT, BLACK_PCT_2, TOTAL_PCT, TOTAL_PCT_2)
#> # A tibble: 28 × 6
#>    WHITE_PCT WHITE_PCT_2 BLACK_PCT BLACK_PCT_2 TOTAL_PCT TOTAL_PCT_2
#>        <dbl>       <dbl>     <dbl>       <dbl>     <dbl>       <dbl>
#>  1    0.0195      0.0193     0.980       0.981         1           1
#>  2    0.177       0.111      0.823       0.889         1           1
#>  3    0.104       0.0818     0.896       0.918         1           1
#>  4    0.0252      0.0191     0.975       0.981         1           1
#>  5    0.174       0.178      0.826       0.822         1           1
#>  6    0.409       0.440      0.591       0.560         1           1
#>  7    0.575       0.554      0.425       0.446         1           1
#>  8    0.700       0.667      0.300       0.333         1           1
#>  9    0.505       0.516      0.495       0.484         1           1
#> 10    0.862       0.839      0.138       0.161         1           1
#> # … with 18 more rows
…
                 weight = "sum", output = "tibble", intensive = "ASTHMA")
#> old-style crs object detected; please recreate object with a recent sf::st_crs()
#> old-style crs object detected; please recreate object with a recent sf::st_crs()
#> old-style crs object detected; please recreate object with a recent sf::st_crs()
#> old-style crs object detected; please recreate object with a recent sf::st_crs()
#> old-style crs object detected; please recreate object with a recent sf::st_crs()
#> old-style crs object detected; please recreate object with a recent sf::st_crs()
#> old-style crs object detected; please recreate object with a recent sf::st_crs()
#> old-style crs object detected; please recreate object with a recent sf::st_crs()
#> old-style crs object detected; please recreate object with a recent sf::st_crs()
#> old-style crs object detected; please recreate object with a recent sf::st_crs()
#> old-style crs object detected; please recreate object with a recent sf::st_crs()
#> old-style crs object detected; please recreate object with a recent sf::st_crs()
#> old-style crs object detected; please recreate object with a recent sf::st_crs()
#> # A tibble: 28 × 2
#>     WARD ASTHMA
#>    <int>  <dbl>
#>  1     1  13.4 
#>  2     2  13.2 
#>  3     3  14.1 
#>  4     4  13.6 
#>  5     5  13.8 
#>  6     6  11.7 
#>  7     7   9.72
#>  8     8   9.82
#>  9     9  11.8 
#> 10    10   9.44
#> # … with 18 more rows
…
                 weight = "sum", output = "tibble", intensive = "ASTHMA")
#> old-style crs object detected; please recreate object with a recent sf::st_crs()
#> old-style crs object detected; please recreate object with a recent sf::st_crs()
#> old-style crs object detected; please recreate object with a recent sf::st_crs()
#> old-style crs object detected; please recreate object with a recent sf::st_crs()
#> old-style crs object detected; please recreate object with a recent sf::st_crs()
#> old-style crs object detected; please recreate object with a recent sf::st_crs()
#> old-style crs object detected; please recreate object with a recent sf::st_crs()
#> old-style crs object detected; please recreate object with a recent sf::st_crs()
#> old-style crs object detected; please recreate object with a recent sf::st_crs()
#> old-style crs object detected; please recreate object with a recent sf::st_crs()
#> old-style crs object detected; please recreate object with a recent sf::st_crs()
#> old-style crs object detected; please recreate object with a recent sf::st_crs()
#> old-style crs object detected; please recreate object with a recent sf::st_crs()
#> # A tibble: 28 × 2
#>     WARD ASTHMA
#>    <int>  <dbl>
#>  1     1  13.4 
#>  2     2  13.2 
#>  3     3  14.1 
#>  4     4  13.6 
#>  5     5  13.8 
#>  6     6  11.7 
#>  7     7   9.72
#>  8     8   9.82
#>  9     9  11.8 
#> 10    10   9.44
#> # … with 18 more rows
…
