…
This validation process can be run independently by end users via the `ar_validate()` function and is also run initially when `aw_interpolate()` is called. The validation process is aimed at helping users new to both `R` and areal interpolation ensure they have arranged their data correctly.

Unlike existing approaches, the `areal` package offers the ability to interpolate multiple variables in a single function call and provides a wider set of options for making these estimates. For spatially extensive interpolations, we offer a formula that matches the existing functionality in `sf`, which is based on the total area of the original source feature (specified with `weight = "total"`). Alternatively, we offer a second formula that is more suitable for data where there should be complete overlap between the source and target data, but there is not. Such incongruity could be due to data quality issues or variation in how different sources represent particular geographies. This uses a sum of the source feature areas remaining after the data are intersected as part of the spatial weight calculation process (specified with `weight = "sum"`).

Our package also provides a manual approach for calculating estimates alongside the primary function `aw_interpolate()`. This is important for users who need to unpack the interpolation workflow and diagnose data issues that occur during interpolation as well as programmers who want to use a portion of the workflow in their software. Finally, `areal` provides both spatial (`sf` object) and a-spatial (`tibble` object) options for output.

# A Short Example
Once data have been prepared for interpolation, meaning they share the same projected coordinate system and there are no conflicts between variable names, interpolations can be calculated with a single function `aw_interpolate()`. This functionality is illustrated here using source and target data built into the `areal` package:

```r
> aw_interpolate(ar_stl_wards, tid = WARD, source = ar_stl_race, sid = GEOID,
+   weight = "sum", output = "tibble",
+   extensive = c("TOTAL_E", "WHITE_E", "BLACK_E"))
# A tibble: 28 x 6
   OBJECTID  WARD       AREA TOTAL_E WHITE_E BLACK_E
      <dbl> <int>      <dbl>   <dbl>   <dbl>   <dbl>
 1        1     1  46138761.   7992.    153.   7779.
 2        2     2 267817711.  12145.   1323.  10639.
 3        3     3  66291644.   7344.    591.   6635.
 4        4     4  53210707.   8458.    160.   8203.
 5        5     5  60462396.   8783.   1526.   7056.
 6        6     6  64337271.  14050.   5840.   7439.
 7        7     7 101268146.  15840.   8220.   6629.
 8        8     8  45966410.  12188.   7604.   3796.
 9        9     9  73993891.  14217.   6838.   6413.
10       10    10  62915358.  11239.   8703.   1667.
# … with 18 more rows
```
…
